<svg xmlns="http://www.w3.org/2000/svg" fill="none" viewBox="0 0 43 42">
  <path fill="#3B68B0" d="M36.8267 15.598l.2129.2107.2129.2108H37.6782l1.0644-.4215h.2128v-.2108l.2129-1.0539.2129.2107c.2129 0 .2129.2108.4257.2108 0 0 .2129 0 .2129.2108h.2129l2.5544-1.2647H43v-.2108l-.2129-.4215c-1.0643-2.5294-4.2574-3.37258-6.8119-2.1079-.6386.4216-1.4901.8432-1.9158 1.4755-.4257-.8431-.8515-1.4755-1.4901-2.1078-1.0643-1.05394-2.5544-1.68629-3.8317-1.68629-1.4901 0-2.5544.42156-3.4059 1.47549l-.2129.4216-.2129.2107 2.1288 1.8971h.2128l1.0644-.4216v.2108c0 .4216-.2129.6324-.2129 1.0539v.2108l.8515.8431h.2129c.2128 0 .2128-.2107.4257-.2107h.4258v.4215c-1.4901-.2108-2.9802.2108-4.2575 1.0539-1.0643.6324-1.7029 1.4755-1.9158 2.3186.8515-2.5293 0-5.4803-2.1287-7.5881-1.0644-1.47553-3.1931-2.31866-5.3218-2.31866v-1.2647c1.2772.63235 1.4901.84314 1.4901.84314H18.3069l1.2773-.84314.2128-.21078V4.84801l1.703.84313h.2129l3.193-2.10783.2129-.21078v-.21078l-.2129-.42157C24.0545 1.2647 22.5644.210783 20.6485 0c-1.9158 0-3.8317.421566-5.5346 1.47548-1.0644.84313-1.9159 1.68627-2.5545 2.74018-.6386-1.05391-1.703-1.89705-2.76732-2.52939C8.08911.421566 5.9604 0 4.04455.632349 2.34158.843133 1.06436 1.89705.212871 3.16175L0 3.58331v.21079s0 .21078.212871.21078L3.40594 6.11271h.21287s1.06436-.63235 1.70297-.84313v1.89705s0 .21078.21287.21078l1.27723.84313h.21287c.21287 0 1.27723-.63235 1.91584-.84313v1.2647c-2.34158-.42157-4.47029.42156-6.17326 2.10779C0 13.7009-.425743 17.9166 1.91584 20.446l.21287.4215h.42575l2.76732-2.5294v-.2108l-.42574-1.897 1.91584.4216h.21287l1.27723-1.0539v-.2108l-.42574-1.8971c.63861 0 1.70297.2108 1.91584.2108h.21292l.2128-.2108c-1.06433 3.3726-1.27721 8.8529 1.9159 17.0735-3.40598.8431-6.38618 2.3186-7.6634 3.7941v.4215l.85148.8431h.21287s.21287.0001.21287-.2107c1.06436-2.3186 7.87628-4.2157 14.90098-4.2157 2.7673 0 5.5347.2108 8.0891.6324 2.7674.6323 6.3862 2.5293 6.3862 3.1617h-.2129c-.2129 0-.2129.2108 0 .4216l.2129.2107s.2128.0001.2128-.2107l1.0644-.8432.2129-.2107v-.2108c-.6387-.8432-1.9159-1.6863-3.406-2.3186l1.0644-12.2255.2129.2108H35.7624l-.2129.4216c0 .2108-.2129.4215-.2129.4215v.2108l.8515 1.0539h.2129s.2129 0 1.0643-.2107l-.2128.4215c0 .2108-.2129.4216-.2129.4216v.2108l1.703 2.3186.2128.2108.2129-.2108.4258-.2108c1.0643-.8431 1.4901-2.1078 1.7029-3.3725 0-1.2647-.4257-2.7402-1.2772-3.7941-1.0644-1.2647-2.3416-2.1078-3.8317-2.3186v-.4216c.4258.4216.6386.4216.6386.6324zm-6.8118-2.5294h-.2129l.2129-2.3187v-.4215l-.2129.2108h-.2129l-1.9158.6323-.8515-.6323c.6386-.4216 1.2772-.63239 1.9158-.63239 1.0644 0 2.1287.42159 2.9802 1.26469.6386.6324 1.0644 1.2647 1.2772 1.8971-.2128 0-.6386.2107-.8514.2107v-.4215-.2108l-.2129-.2108h-.2129-.2128c-.2129 0-.4258.2108-.8515.2108-.2129.4216-.4258.4216-.6386.4216zm-2.9802 3.794c1.0643-.8431 2.5544-1.0539 3.6188-.8431 0 .4216.2128.8432.4257 1.0539l.2129.2108-.4258.2108-2.1287-.8431-.4257-.2108v.4215l.4257 2.3187-2.1287-.8432-.4257-.2108v.4216l.2128 2.3186-.8514.6324c-.8515-1.4755-.2129-3.3726 1.4901-4.6373zm-3.1931 4.0049c0 .6324.4257 1.2647.6386 1.6863.2129.2108.2129.4216.2129.4216l.2128.2107 2.3416-1.6862v-.2108-.2108-.6323-.4216s.2129 0 .2129.2108c.4257.2108.6386.2108.8515.4215h.2129l1.2772-.6323V18.5489l1.0643.4216h.2129l.2129-.2108-2.3416 11.5931h-.4257c-2.3416-.4216-5.109-.6324-7.8763-.6324h-2.5544c-4.2575-7.1666-5.5347-13.0685-4.2575-17.2842l1.0644 1.0539h.2129l1.2772-.2108c.2129 0 .6386-.2107.6386-.2107l-.4257 1.897v.2108l1.2772 1.0539h.2129c.2128 0 1.0643-.2108 1.7029-.4216h.2129c0 .8432-.2129 1.8971-.4257 2.1079v.2107l2.5544 2.5294h.4258l.2128-.4215c.6386-.4216 1.0644-1.0539 1.2773-1.6863-.2129.8431-.2129 1.6863-.2129 2.3186zM12.7723 10.7499c-1.2773 0-2.1287-.84309-2.1287-2.10779s.8514-2.10783 2.1287-2.10783c1.2772 0 2.1287 1.05391 2.1287 2.10783 0 1.05391-1.0644 2.10779-2.1287 2.10779zm-.6386 1.4755h.4257c-1.4901 4.4265 0 10.3284 4.0446 17.495-1.0644 0-1.9159.2108-3.1931.4216-3.4059-9.0637-2.5545-14.7548-1.2772-17.9166zm2.9802-7.37739c0 .21078-.2129.21078 0 0l-.2129.42157v.84313c-.4258-.42157-.8515-.84313-1.4901-.84313.6386-1.05392 1.4901-1.89705 2.3416-2.5294 1.4901-.84313 2.9802-1.2647 4.4703-1.05391 1.2772.21078 2.1287.63234 2.9802 1.47548L21.5 4.21566l-2.5545-1.47548h-.2128l-.2129.21078v3.16175l-.4257.21078c-.6387-.21078-2.1288-1.05391-2.7674-1.2647l-.2128-.21078zm7.4505 13.91169l-1.4901-1.2647.6386-2.951v-.2107H21.5l-2.9802.6323-.4257-.2108.6386-2.9509v-.2108h-.2129l-1.0644.2108c-.6386.2107-1.7029.4215-2.1287.4215l-.4257-.8431c.6386-.4216 1.0643-1.0539 1.2772-1.68628 1.703-.21078 3.6188.42158 5.1089 1.89708 2.1287 2.1078 2.5545 5.2696 1.2773 7.1666zM8.51485 12.0146c-1.27723-.2107-1.70297-.4215-2.12871-.4215-.21287 0-.21287 0-.42574.2108v.2107s0 .4216.21287.8432c.21287.6323.42574 1.6862.42574 2.1078v.2108l-2.9802-.8431h-.21287v.2107s.42574 2.1079.63861 3.1618l-1.49009 1.2647c-1.4901-2.1079-.85149-5.2696 1.27722-7.3774 1.27723-1.2647 2.9802-1.89708 4.4703-1.89708.42574 0 .85149 0 1.06436.21079.21287.63239.63866 1.05389 1.06436 1.47549l-.85149.8431c-.21287 0-.63862 0-1.06436-.2108zM6.38614 2.95096h-.21287c-.21287 0-2.12872 1.05392-2.76733 1.47549l-1.4901-1.05392c1.70297-1.89705 4.89604-2.10783 7.23763-.42157.85153.63235 1.70293 1.47549 2.34153 2.5294-.6386 0-1.0643.42157-1.49.84313V5.26958s0-.21079-.21292-.21079h-.21287L6.81188 6.53428l-.21287-.21079V3.16175c0-.21079 0-.21079-.21287-.21079zM30.2277 30.7743l2.5545-12.4362h.4257l-1.0643 13.0686c-.6386-.2108-1.2773-.6324-1.9159-.6324zm4.4703-14.9656c0 .6324-.6386 1.2647-1.4901 1.2647-.4257 0-.6386-.2108-.8515-.6323-.4257-.2108-.4257-.6324-.4257-1.0539 0-.8432.8515-1.2647 1.4901-1.2647.4257 0 .6386.2108.8515.6323.4257.2108.4257.6324.4257 1.0539zm4.4703 2.951c.6386.8431 1.0644 1.897 1.0644 2.951 0 .8431-.2129 1.4754-.6386 1.897l-.6387-.8431v-.2108c0-.2108.2129-.4216.2129-.8431.2129-.2108.2129-.6324.4258-.8432 0-.2108 0-.2108.2128-.2108v-.2107h-.2128l-2.3416.2107v-.2107c0-.2108.2128-.4216.2128-.8432.2129-.2108.2129-.6323.4258-.8431 0-.2108 0-.2108.2129-.2108v-.4216h-.2129l-2.3416.2108-.4257-.4215c.2128-.2108.6386-.4216.8514-.8432.8515 0 2.3416.6324 3.1931 1.6863zm-3.4059-5.4804l-.2129-.2107v.8431c-.2129-.2108-.4257-.4216-.6386-.6324.4257-.6323 1.0643-1.0539 1.703-1.4754 1.7029-.6324 3.8316-.2108 4.6831 1.0539l-.8515.4215-.2128-.2107-.6386-.2108c-.2129-.2108-.4258-.4216-.6387-.4216l-.2128-.2108-.2129-.2108v.4216l-.4257 2.3186-2.3416-1.4755z"/>
  <path fill="#40BFEA" d="M29.5891 41.7893c-1.703 0-2.5544-.8431-3.4059-1.4755-.6386-.6323-1.2773-1.0539-2.3416-1.0539-1.0644 0-1.703.4216-2.3416 1.0539-.8515.6324-1.703 1.4755-3.4059 1.4755-1.703 0-2.5545-.8431-3.406-1.4755-.6386-.6323-1.0643-.8431-2.3416-.8431-1.2772 0-1.7029.4216-2.3415 1.0539-.85153.6324-1.70302 1.4755-3.40599 1.4755s-2.55446-.8431-3.40594-1.4755c-.63861-.6323-1.27723-1.0539-2.341585-1.0539C.425743 39.4707 0 39.0491 0 38.6276c0-.4216.425743-.8432.851485-.8432 1.702975 0 2.554455.8432 3.405945 1.4755.63861.6324 1.27722 1.0539 2.34158 1.0539s1.70297-.4215 2.34158-1.0539c.85149-.6323 1.70301-1.4755 3.40591-1.4755 1.703 0 2.5545.8432 3.406 1.4755.6386.6324 1.2772 1.0539 2.3416 1.0539 1.0643 0 1.7029-.4215 2.3415-1.0539.8515-.6323 1.703-1.4755 3.406-1.4755s2.5544.8432 3.4059 1.4755c.6386.6324 1.2773 1.0539 2.3416 1.0539 1.0644 0 1.703-.4215 2.3416-1.0539.8515-.6323 1.703-1.4755 3.4059-1.4755.4258 0 .8515.4216.8515.8432 0 .4215-.4257.8431-.8515.8431-1.0643 0-1.7029.4216-2.3416 1.0539-.6386.4216-1.7029 1.2647-3.4059 1.2647z"/>
</svg>
