<svg xmlns="http://www.w3.org/2000/svg" fill="none" viewBox="0 0 43 43">
  <path fill="#3B68B0" d="M40.5551 18.3147c-.666-.4908-1.4897-1.0954-1.5948-1.4985-.114-.4382.3067-1.4109.6397-2.1908.5783-1.3407 1.183-2.7253.517-3.882-.6748-1.17421-2.1908-1.34071-3.6542-1.50721-.8325-.09639-1.8753-.21031-2.182-.52578-.3154-.3067-.4294-1.3495-.5258-2.18198-.1665-1.46342-.333-2.97942-1.5072-3.65417-1.0165-.58712-2.5237-.07887-3.882.51702-.7536.32423-1.5335.6397-2.1907.6397-.4031-.10516-1.0078-.92888-1.4985-1.59487C23.8353 1.29692 22.8802 0 21.4956 0c-1.3758 0-2.3309 1.29692-3.1809 2.43611-.4908.66599-1.0954 1.48971-1.6738 1.62115-.4995 0-1.2794-.33299-2.0242-.66598-1.3583-.58712-2.8655-1.10414-3.8733-.51702-1.17421.67475-1.34071 2.19075-1.50721 3.65417-.08763.83248-.21031 1.87528-.51701 2.18198-.31547.31547-1.3495.42939-2.18199.52578-1.46342.1665-2.97942.333-3.65417 1.50721-.66598 1.1567-.06134 2.5413.51702 3.882.34176.7799.76238 1.7526.64846 2.1908-.10515.4031-.93764 1.0165-1.59486 1.4985C1.29692 19.1647 0 20.1198 0 21.4956s1.29692 2.3397 2.44487 3.181c.66599.4907 1.48971 1.0954 1.59487 1.4985.11392.4381-.30671 1.4108-.6397 2.1907-.57836 1.3407-1.183 2.7253-.51702 3.882.67475 1.1742 2.19075 1.3407 3.65417 1.5072.83249.0964 1.87528.2104 2.18199.5258.31546.3067.42938 1.3495.52578 2.182.16649 1.4634.33299 2.9794 1.50724 3.6542 1.0165.5871 2.5237.0788 3.882-.517.7536-.3243 1.516-.6573 2.1907-.6397.4031.1051 1.0078.9288 1.4985 1.5948.8413 1.148 1.7964 2.4449 3.181 2.4449 1.3758 0 2.3309-1.2969 3.1722-2.4361.4907-.666 1.0954-1.4897 1.6737-1.6212.5083 0 1.2794.333 2.0243.666 1.3582.5959 2.8655 1.1042 3.8732.517 1.1742-.6747 1.3407-2.1907 1.5072-3.6541.0877-.8325.2104-1.8753.5171-2.182.3154-.3155 1.3495-.4294 2.1819-.5258 1.4635-.1665 2.9795-.333 3.6542-1.5072.666-1.1567.0701-2.5413-.517-3.882-.3418-.7799-.7624-1.7526-.6397-2.1908.1052-.4031.9376-1.0165 1.5949-1.4985 1.1479-.8412 2.4448-1.7964 2.4448-3.1809 0-1.3846-1.2881-2.3397-2.4361-3.1897zm-1.1041 4.8546c-.9902.7274-2.0155 1.4898-2.2959 2.5238-.2892 1.0691.2366 2.2696.7361 3.4263.3242.7361.8062 1.8578.6134 2.1995-.2016.3506-1.4284.4908-2.2433.5872-1.2444.1402-2.5238.2804-3.3037 1.0603-.7711.7711-.9201 2.0593-1.0603 3.3036-.0876.815-.2279 2.0418-.5871 2.2433-.0526.0351-.1402.0351-.2103.0351-.482 0-1.2532-.333-1.9892-.6485-1.1568-.4995-2.4274-1.0077-3.4176-.7361-1.034.2805-1.7964 1.3057-2.5238 2.2959-.4907.666-1.2355 1.6825-1.6737 1.6825-.4381 0-1.183-1.0077-1.6737-1.6825-.7273-.9902-1.4897-2.0154-2.5238-2.2959-.2015-.0525-.4206-.0788-.6484-.0788-.8938 0-1.849.4118-2.7691.8149-.7361.3155-1.4985.6485-1.9892.6485-.0614 0-.1578-.0088-.2103-.0351-.3593-.2015-.4908-1.4371-.5872-2.2433-.1402-1.2443-.2804-2.5237-1.0603-3.3036-.77112-.7712-2.05928-.9201-3.30362-1.0603-.81496-.0877-2.04178-.2279-2.24333-.5872-.19278-.333.28918-1.4546.61341-2.1995.49949-1.1567 1.02527-2.3485.73609-3.4263-.28041-1.034-1.30568-1.7877-2.2959-2.5238-.66599-.4994-1.6825-1.2443-1.6825-1.6737s1.00775-1.183 1.6825-1.6737c.99022-.7273 2.01549-1.4897 2.2959-2.5238.28918-1.069-.2366-2.2696-.73609-3.4263-.31547-.7361-.80619-1.8577-.61341-2.1995.20155-.3505 1.43713-.4907 2.24333-.5784 1.24434-.1402 2.52374-.2804 3.30362-1.0603.7799-.77988.9201-2.05928 1.0603-3.30362.0877-.81496.2279-2.04178.5872-2.24333.0525-.03505.1402-.03505.2103-.03505.4819 0 1.2531.33299 1.9892.65722 1.1567.49949 2.4273 1.00775 3.4175.7361 1.0341-.28042 1.7965-1.30569 2.5238-2.29591.4907-.66599 1.2356-1.68249 1.6737-1.68249.4382 0 1.183 1.00774 1.6737 1.68249.7274.99022 1.4898 2.01549 2.5238 2.29591.9902.26288 2.2608-.22784 3.4176-.7361.736-.31546 1.4984-.64846 1.9892-.64846.0613 0 .1577.00877.2103.03505.3592.20155.4907 1.43714.5871 2.24333.1402 1.24435.2804 2.52374 1.0603 3.30366.7712.7711 2.0593.9201 3.3037 1.0603.8149.0876 2.0417.2278 2.2433.5871.1928.333-.2892 1.4547-.6134 2.1995-.4995 1.1568-1.0253 2.3485-.7361 3.4264.2804 1.034 1.3057 1.7876 2.2959 2.5237.666.4995 1.6825 1.2444 1.6825 1.6737 0 .4294-1.0165 1.1655-1.6825 1.6562z"/>
  <path fill="#40BFEA" d="M13.9028 24.8571c.1013.2938.5168.2942.6185.0004l3.1995-9.237c.0457-.1317.1698-.2201.3092-.2201h1.1068c.2279 0 .3861.2273.3068.441l-4.4118 11.8955c-.0476.1283-.17.2134-.3068.2134h-1.0099c-.1369 0-.2593-.0852-.3068-.2136L9.00464 15.8412c-.07911-.2137.07899-.4408.30687-.4408h1.09809c.1396 0 .2639.0886.3094.2206l3.1838 9.2361zM23.0722 27.6231c0 .1807-.1465.3272-.3273.3272h-1.0004c-.1808 0-.3273-.1465-.3273-.3272V15.7276c0-.1807.1465-.3272.3273-.3272h1.0004c.1808 0 .3273.1465.3273.3272v11.8955zM28.0884 23.0372c-.1808 0-.3273.1465-.3273.3272v4.2587c0 .1807-.1465.3272-.3272.3272h-1.0005c-.1807 0-.3272-.1465-.3272-.3272V15.7276c0-.1807.1465-.3272.3272-.3272h4.3014c1.3734 0 2.448.3505 3.2237 1.0516.7815.701 1.1723 1.629 1.1723 2.784 0 1.2183-.3822 2.1578-1.1464 2.8186-.7585.6551-1.8475.9826-3.2668.9826h-2.6292zm-.3273-1.6805c0 .1808.1465.3273.3273.3273h2.6464c.885 0 1.563-.2069 2.0342-.6206.4712-.4195.7068-1.0229.7068-1.8101 0-.747-.2356-1.3447-.7068-1.7929-.4712-.4482-1.1176-.6809-1.9393-.6981h-2.7413c-.1808 0-.3273.1465-.3273.3272v4.2672z"/>
</svg>
